CPU2.vcd
$date
	Sun Feb 02 20:30:48 2025
$end
$version
	Icarus Verilog
$end
$timescale
	1ps
$end
$scope module CPU2_tb $end
$var reg 1 ! clk $end
$scope module u_CPU $end
$var wire 128 " Data_memory_out_Cache_in [127:0] $end
$var wire 32 # EX_MEM_PC_plus_four_to_fetch [31:0] $end
$var wire 1 $ RegWrite_outMem_Wb_Register $end
$var wire 3 % alu_ctr_outAlu_control [2:0] $end
$var wire 32 & alu_out_outAlu_inEX_Mem_Register [31:0] $end
$var wire 1 ' alu_src_outControl_unit $end
$var wire 1 ( branch_outControl_unit $end
$var wire 1 ) cache_hit $end
$var wire 1 * clk $end
$var wire 2 + controlSignals_outEX_Mem_Register_inMem_WB_Register [1:0] $end
$var wire 5 , controlSignals_outID_EX_Register_inEX_Mem_Register [4:0] $end
$var wire 10 - controlUnit_outControlUnit_inID_EX_Register [9:0] $end
$var wire 32 . data_out1_outRegister_file_inID_EX_Register [31:0] $end
$var wire 32 / data_out2_outRegister_file_inID_EX_Register [31:0] $end
$var wire 1 0 hit $end
$var wire 32 1 instruction_outFetch_inIF_ID_Register [31:0] $end
$var wire 32 2 instruction_outIF_ID_Register [31:0] $end
$var wire 1 3 isBranch $end
$var wire 1 4 mem_read_outControl_unit $end
$var wire 1 5 mem_to_reg_outControl_unit $end
$var wire 1 6 mem_write_outControl_unit $end
$var wire 32 7 nextPC_outFetch_inIF_ID_Register [31:0] $end
$var wire 32 8 nextPC_outIF_ID_Register_inID_EX_Register [31:0] $end
$var wire 6 9 opcode_inControlUnit [5:0] $end
$var wire 32 : outALUot_outMem_WB_Register [31:0] $end
$var wire 32 ; outALUout_outEX_Mem_Register [31:0] $end
$var wire 2 < outControlSig_outMem_WB_Register [1:0] $end
$var wire 5 = outControlSignals_outEX_Mem_Register [4:0] $end
$var wire 10 > outControlUnit_outID_EX_Register [9:0] $end
$var wire 32 ? outDataMemory_inMem_WB_Register [31:0] $end
$var wire 32 @ outDataWriteBack [31:0] $end
$var wire 32 A outMemoryOut_outMem_WB_Register [31:0] $end
$var wire 32 B outNextPC_outID_EX_Register [31:0] $end
$var wire 32 C outPCBranch_outEX_Mem_Register [31:0] $end
$var wire 32 D outRD1_outID_EX_Register [31:0] $end
$var wire 32 E outRD2_outEX_Mem_Register [31:0] $end
$var wire 32 F outRD2_outID_EX_Register [31:0] $end
$var wire 32 G outSignExt_outID_EX_Register [31:0] $end
$var wire 5 H outWriteReg_outEX_Mem_Register [4:0] $end
$var wire 5 I outWriteReg_outMem_WB_Register [4:0] $end
$var wire 1 J outZero_outEX_Mem_Register $end
$var wire 4 K out_aluControl_to_alu [3:0] $end
$var wire 32 L outadder_outAdder_inEX_Mem_Register [31:0] $end
$var wire 5 M outrd_outID_EX_Register [4:0] $end
$var wire 5 N outrs2_outID_EX_Register [4:0] $end
$var wire 1 O reg_dst_outControl_unit $end
$var wire 1 P reg_write_outControl_unit $end
$var wire 5 Q register_file_rd [4:0] $end
$var wire 5 R register_file_rs [4:0] $end
$var wire 5 S register_file_rt [4:0] $end
$var wire 16 T sign_extend_in [15:0] $end
$var wire 32 U sign_extend_out [31:0] $end
$var wire 32 V srcB_outMux_2_1_ALUsrc [31:0] $end
$var wire 5 W writeReg_outMux_2_1_regDst [4:0] $end
$var wire 1 X zero_outAlu_inEX_Mem_Register $end
$scope module cache $end
$var wire 32 Y address [31:0] $end
$var wire 1 * clk $end
$var wire 128 Z inData [127:0] $end
$var wire 1 [ writeSig $end
$var reg 1 \ hit $end
$var integer 32 ] i [31:0] $end
$var reg 32 ^ out [31:0] $end
$upscope $end
$scope module finalMux5 $end
$var wire 5 _ A [4:0] $end
$var wire 5 ` B [4:0] $end
$var wire 5 a result [4:0] $end
$var wire 1 b select $end
$upscope $end
$scope module finalMux $end
$var wire 32 c in1 [31:0] $end
$var wire 32 d in2 [31:0] $end
$var wire 32 e out [31:0] $end
$var wire 1 f sel $end
$upscope $end
$scope module aluControl $end
$var wire 3 g ALUOp [2:0] $end
$var wire 6 h in1 [5:0] $end
$var reg 4 i ALUcnt [3:0] $end
$upscope $end
$scope module final_ALU $end
$var wire 4 j aluControl [3:0] $end
$var wire 32 k in1 [31:0] $end
$var wire 32 l in2 [31:0] $end
$var wire 5 m shamt [4:0] $end
$var reg 32 n out [31:0] $end
$var reg 1 o zero $end
$upscope $end
$scope module finalAddModule $end
$var wire 32 p A [31:0] $end
$var wire 32 q B [31:0] $end
$var wire 32 r result [31:0] $end
$upscope $end
$scope module ExMemReg $end
$var wire 32 s ALUout [31:0] $end
$var wire 32 t PCBranch [31:0] $end
$var wire 32 u RD2 [31:0] $end
$var wire 1 * clk $end
$var wire 5 v controlSignals [4:0] $end
$var wire 1 0 hit $end
$var wire 5 w writeReg [4:0] $end
$var wire 1 X zero $end
$var reg 32 x outALUout [31:0] $end
$var reg 5 y outControlSignals [4:0] $end
$var reg 32 z outPCBranch [31:0] $end
$var reg 32 { outRD2 [31:0] $end
$var reg 5 | outWriteReg [4:0] $end
$var reg 1 } outZero $end
$upscope $end
$scope module IFID_register $end
$var wire 32 ~ PCplusFour [31:0] $end
$var wire 1 * clk $end
$var wire 1 0 hit $end
$var wire 32 !" instruction [31:0] $end
$var reg 32 "" outInstruction [31:0] $end
$var reg 32 #" outNextPC [31:0] $end
$upscope $end
$scope module IDEX_register $end
$var wire 32 $" RD1 [31:0] $end
$var wire 32 %" RD2 [31:0] $end
$var wire 1 * clk $end
$var wire 10 &" controlUnit [9:0] $end
$var wire 1 0 hit $end
$var wire 32 '" nextPC [31:0] $end
$var wire 5 (" rd [4:0] $end
$var wire 5 )" rs2 [4:0] $end
$var wire 32 *" signExt [31:0] $end
$var reg 10 +" outControlUnit [9:0] $end
$var reg 32 ," outNextPC [31:0] $end
$var reg 32 -" outRD1 [31:0] $end
$var reg 32 ." outRD2 [31:0] $end
$var reg 32 /" outSignExt [31:0] $end
$var reg 5 0" outrd [4:0] $end
$var reg 5 1" outrs2 [4:0] $end
$upscope $end
$scope module fetch_stage $end
$var wire 1 * clk $end
$var wire 1 0 hit $end
$var wire 32 2" in [31:0] $end
$var wire 32 3" muxpc [31:0] $end
$var wire 32 4" out [31:0] $end
$var wire 32 5" pcim [31:0] $end
$var wire 1 3 sel $end
$var wire 32 6" temp [31:0] $end
$var reg 32 7" pc_plus_four [31:0] $end
$scope module mux1 $end
$var wire 32 8" in1 [31:0] $end
$var wire 32 9" in2 [31:0] $end
$var wire 32 :" out [31:0] $end
$var wire 1 3 sel $end
$upscope $end
$scope module pc1 $end
$var wire 1 * clk $end
$var wire 1 0 hit $end
$var wire 32 ;" in [31:0] $end
$var integer 32 <" i [31:0] $end
$var reg 32 =" out [31:0] $end
$upscope $end
$scope module IM1 $end
$var wire 1 * clk $end
$var wire 32 >" in [31:0] $end
$var reg 32 ?" out [31:0] $end
$upscope $end
$upscope $end
$scope module registerfile $end
$var wire 1 @" RegWrite $end
$var wire 1 * clk $end
$var wire 32 A" in [31:0] $end
$var wire 5 B" rd [4:0] $end
$var wire 5 C" rs [4:0] $end
$var wire 5 D" rt [4:0] $end
$var integer 32 E" i [31:0] $end
$var reg 32 F" out1 [31:0] $end
$var reg 32 G" out2 [31:0] $end
$upscope $end
$scope module sign_extend $end
$var wire 16 H" in [15:0] $end
$var reg 32 I" out [31:0] $end
$upscope $end
$scope module control_unit $end
$var wire 6 J" opCode [5:0] $end
$var reg 3 K" aluOp [2:0] $end
$var reg 1 L" aluSrc $end
$var reg 1 M" branch $end
$var reg 1 N" memRead $end
$var reg 1 O" memToReg $end
$var reg 1 P" memWrite $end
$var reg 1 Q" regDst $end
$var reg 1 R" regWrite $end
$upscope $end
$scope module MemWbreg $end
$var wire 32 S" ALUout [31:0] $end
$var wire 32 T" MemoryOut [31:0] $end
$var wire 1 * clk $end
$var wire 2 U" controlSig [1:0] $end
$var wire 1 0 hit $end
$var wire 5 V" writeReg [4:0] $end
$var reg 32 W" outALUot [31:0] $end
$var reg 2 X" outControlSig [1:0] $end
$var reg 32 Y" outMemoryOut [31:0] $end
$var reg 5 Z" outWriteReg [4:0] $end
$upscope $end
$scope module datamemory $end
$var wire 32 [" address [31:0] $end
$var wire 1 * clk $end
$var wire 32 \" inData [31:0] $end
$var wire 1 ]" writeSig $end
$var reg 32 ^" addressTemp [31:0] $end
$var reg 3 _" clock [2:0] $end
$var reg 128 `" out [127:0] $end
$upscope $end
$scope module wbMux $end
$var wire 32 a" in1 [31:0] $end
$var wire 32 b" in2 [31:0] $end
$var wire 32 c" out [31:0] $end
$var wire 1 d" sel $end
$upscope $end
$upscope $end
$upscope $end
$enddefinitions $end
#0
$dumpvars
xd"
bx c"
bx b"
bx a"
bx `"
b0 _"
bx ^"
x]"
bx \"
bx ["
bx Z"
bx Y"
bx X"
bx W"
bx V"
bx U"
bx T"
bx S"
0R"
0Q"
0P"
0O"
0N"
0M"
0L"
b0 K"
bx J"
bx I"
bx H"
bx G"
bx F"
b100000 E"
bx D"
bx C"
bx B"
bx A"
x@"
bx ?"
b0 >"
b0 ="
b0 <"
bx ;"
bx :"
bz 9"
b100 8"
b100 7"
b100 6"
b0 5"
bx 4"
bx 3"
bz 2"
bx 1"
bx 0"
bx /"
bx ."
bx -"
bx ,"
bx +"
bx *"
bx )"
bx ("
bx '"
b0 &"
bx %"
bx $"
bx #"
bx ""
bx !"
b100 ~
x}
bx |
bx {
bx z
bx y
bx x
bx w
bx v
bx u
bx t
bx s
bx r
bx q
bx00 p
xo
bx n
bz m
bx l
bx k
bx j
bx i
bx h
bx g
xf
bx e
bx d
bx c
xb
bx a
bx `
bx _
bx ^
b0 ]
1\
z[
bx Z
bx Y
xX
bx W
bx V
bx U
bx T
bx S
bx R
bx Q
0P
0O
bx N
bx M
bx L
bx K
xJ
bx I
bx H
bx G
bx F
bx E
bx D
bx C
bx B
bx A
bx @
bx ?
bx >
bx =
bx <
bx ;
bx :
bx 9
bx 8
b100 7
06
05
04
x3
bx 2
bx 1
10
bx /
bx .
b0 -
bx ,
bx +
0*
1)
0(
0'
bx &
b0 %
x$
bz #
bx "
0!
$end
#10000
b11000010011 I"
b11000010011 U
b11000010011 *"
b111111 9
b111111 J"
b11000010011 T
b11000010011 H"
b0 Q
b0 ("
b10011 S
b10011 )"
b10011 D"
b11111 R
b11111 C"
0d"
0@"
b0 g
0f
0b
b0 +
b0 U"
b0 ,
b0 v
b1000 7"
b1000 7
b1000 ~
b100 #"
b100 8
b100 '"
b11111111111100110000011000010011 ""
b11111111111100110000011000010011 2
b0 +"
b0 >
b1000 6"
b1000 8"
b1 ]
b100 ="
b100 5"
b100 >"
b1 <"
b11111111111100110000011000010011 ?"
b11111111111100110000011000010011 1
b11111111111100110000011000010011 !"
b11111111111100110000011000010011 4"
b1 _"
1!
1*
#20000
0!
0*
#30000
b1100 3"
b1100 :"
b1100 ;"
03
0$
b10011 W
b10011 a
b10011 w
b10011 B"
b1100001001100 p
b1100001010000 L
b1100001010000 r
b1100001010000 t
b10011 h
0]"
b1100 7"
b1100 7
b1100 ~
b0 X"
b0 <
b10011 G"
b10011 /
b10011 %"
b11111 F"
b11111 .
b11111 $"
b10011 1"
b10011 N
b10011 _
b0 0"
b0 M
b0 `
b11000010011 /"
b11000010011 G
b11000010011 d
b100 ,"
b100 B
b100 q
b1000 #"
b1000 8
b1000 '"
b0 y
b0 =
b1100 6"
b1100 8"
b10 _"
b100010101011000001110010011 ?"
b100010101011000001110010011 1
b100010101011000001110010011 !"
b100010101011000001110010011 4"
b1000 ="
b1000 5"
b1000 >"
b10 <"
b10 ]
1!
1*
#40000
0!
0*
#50000
b10 K"
b10 %
1R"
1P
1L"
b101000001 -
b101000001 &"
1'
b11111111111111111000001110010011 I"
b11111111111111111000001110010011 U
b11111111111111111000001110010011 *"
b1 9
b1 J"
b1000001110010011 T
b1000001110010011 H"
b10000 Q
b10000 ("
b10101 S
b10101 )"
b10101 D"
b10 R
b10 C"
b10011 V
b10011 e
b10011 l
b10000 7"
b10000 7
b10000 ~
b10011 |
b10011 H
b10011 V"
b1100001010000 z
b1100001010000 C
b1100 #"
b1100 8
b1100 '"
b100010101011000001110010011 ""
b100010101011000001110010011 2
b10011 ."
b10011 F
b10011 c
b10011 u
b11111 -"
b11111 D
b11111 k
b1000 ,"
b1100001010100 L
b1100001010100 r
b1100001010100 t
b1000 B
b1000 q
b10000 3"
b10000 :"
b10000 ;"
b10000 6"
b10000 8"
b11 ]
b1100 ="
b1100 5"
b1100 >"
b11 <"
b11 _"
1!
1*
#60000
0!
0*
#70000
0o
0X
b1 n
b1 &
b1 s
b111 i
b111 K
b111 j
b11111111111111111000001110010011 V
b11111111111111111000001110010011 e
b11111111111111111000001110010011 l
1@"
b10 g
1f
b1 +
b1 U"
b1 ,
b1 v
b10101 W
b10101 a
b10101 w
b10101 B"
b11111111111111100000111001001100 p
b10100 7"
b10100 7
b10100 ~
b10011 Z"
b10011 I
b10101 G"
b10101 /
b10101 %"
b10 F"
b10 .
b10 $"
b101000001 +"
b101000001 >
b10101 1"
b10101 N
b10101 _
b10000 0"
b10000 M
b10000 `
b11111111111111111000001110010011 /"
b11111111111111111000001110010011 G
b11111111111111111000001110010011 d
b1100 ,"
b11111111111111100000111001011000 L
b11111111111111100000111001011000 r
b11111111111111100000111001011000 t
b1100 B
b1100 q
b10000 #"
b10000 8
b10000 '"
b1100001010100 z
b1100001010100 C
b10011 {
b10011 E
b10011 \"
b10100 3"
b10100 :"
b10100 ;"
b10100 6"
b10100 8"
b100 _"
b101001010001010010010011 ?"
b101001010001010010010011 1
b101001010001010010010011 !"
b101001010001010010010011 4"
b10000 ="
b10000 5"
b10000 >"
b100 <"
b100 ]
1!
1*
#80000
0!
0*
#90000
b0 K"
b0 %
0L"
0'
1Q"
b1000000001 -
b1000000001 &"
1O
b1010010010011 I"
b1010010010011 U
b1010010010011 *"
b0 9
b0 J"
b1010010010011 T
b1010010010011 H"
b10 Q
b10 ("
b101 S
b101 )"
b101 D"
b101 R
b101 C"
b11000 7"
b11000 7
b11000 ~
0}
0J
b1 y
b1 =
b10101 |
b10101 H
b10101 V"
b11111111111111100000111001011000 z
b11111111111111100000111001011000 C
b1 x
b1 ;
b1 Y
b1 S"
b1 ["
b10100 #"
b10100 8
b10100 '"
b101001010001010010010011 ""
b101001010001010010010011 2
b10101 ."
b10101 F
b10101 c
b10101 u
b10 -"
b10 D
b10 k
b10000 ,"
b11111111111111100000111001011100 L
b11111111111111100000111001011100 r
b11111111111111100000111001011100 t
b10000 B
b10000 q
bx G"
bx /
bx %"
b1 X"
b1 <
b11000 3"
b11000 :"
b11000 ;"
b11000 6"
b11000 8"
0\
0)
b10100 ="
b10100 5"
b10100 >"
bx0000 ^"
b0 _"
1!
1*
#100000
0!
0*
#110000
1o
1X
b0 n
b0 &
b0 s
b0 g
0f
1b
b10 W
b10 a
b10 w
b10 B"
bx V
bx e
bx l
b101001001001100 p
b11100 7"
b11100 7
b11100 ~
b10101 Z"
b10101 I
b1 W"
b1 :
b1 b"
b101 G"
b101 /
b101 %"
b101 F"
b101 .
b101 $"
b1000000001 +"
b1000000001 >
b101 1"
b101 N
b101 _
b10 0"
b10 M
b10 `
bx ."
bx F
bx c
bx u
b1010010010011 /"
b1010010010011 G
b1010010010011 d
b10100 ,"
b101001001100000 L
b101001001100000 r
b101001001100000 t
b10100 B
b10100 q
b11000 #"
b11000 8
b11000 '"
b11111111111111100000111001011100 z
b11111111111111100000111001011100 C
b10101 {
b10101 E
b10101 \"
b11100 3"
b11100 :"
b11100 ;"
b11100 6"
b11100 8"
b1 _"
b1 ^"
b111101110100011010110011 ?"
b111101110100011010110011 1
b111101110100011010110011 !"
b111101110100011010110011 4"
b11000 ="
b11000 5"
b11000 >"
1!
1*
#120000
0!
0*
#130000
b100011010110011 I"
b100011010110011 U
b100011010110011 *"
b100011010110011 T
b100011010110011 H"
b1000 Q
b1000 ("
b10111 S
b10111 )"
b10111 D"
b111 R
b111 C"
b101 V
b101 e
b101 l
b100000 7"
b100000 7
b100000 ~
1}
1J
b10 |
b10 H
b10 V"
b101001001100000 z
b101001001100000 C
bx {
bx E
bx \"
b0 x
b0 ;
b0 Y
b0 S"
b0 ["
b11100 #"
b11100 8
b11100 '"
b111101110100011010110011 ""
b111101110100011010110011 2
b101 ."
b101 F
b101 c
b101 u
b101 -"
b101 D
b101 k
b11000 ,"
b101001001100100 L
b101001001100100 r
b101001001100100 t
b11000 B
b11000 q
b100000 3"
b100000 :"
b100000 ;"
b100000 6"
b100000 8"
b11100 ="
b11100 5"
b11100 >"
b0 _"
1!
1*
#140000
0!
0*
#150000
b1000 W
b1000 a
b1000 w
b1000 B"
b10001101011001100 p
b110011 h
b100100 7"
b100100 7
b100100 ~
b10 Z"
b10 I
b0 W"
b0 :
b0 b"
b10111 G"
b10111 /
b10111 %"
b111 F"
b111 .
b111 $"
b10111 1"
b10111 N
b10111 _
b1000 0"
b1000 M
b1000 `
b100011010110011 /"
b100011010110011 G
b100011010110011 d
b11100 ,"
b10001101011101000 L
b10001101011101000 r
b10001101011101000 t
b11100 B
b11100 q
b100000 #"
b100000 8
b100000 '"
b101001001100100 z
b101001001100100 C
b101 {
b101 E
b101 \"
b100100 3"
b100100 :"
b100100 ;"
b100100 6"
b100100 8"
b1 _"
b0 ^"
b1001110010110100010110011 ?"
b1001110010110100010110011 1
b1001110010110100010110011 !"
b1001110010110100010110011 4"
b100000 ="
b100000 5"
b100000 >"
1!
1*
#160000
0!
0*
#170000
0o
0X
b110100010110011 I"
b110100010110011 U
b110100010110011 *"
b1 n
b1 &
b1 s
b110100010110011 T
b110100010110011 H"
b1101 Q
b1101 ("
b11001 S
b11001 )"
b11001 D"
b1001 R
b1001 C"
b10111 V
b10111 e
b10111 l
b101000 7"
b101000 7
b101000 ~
b1000 |
b1000 H
b1000 V"
b10001101011101000 z
b10001101011101000 C
b100100 #"
b100100 8
b100100 '"
b1001110010110100010110011 ""
b1001110010110100010110011 2
b10111 ."
b10111 F
b10111 c
b10111 u
b111 -"
b111 D
b111 k
b100000 ,"
b10001101011101100 L
b10001101011101100 r
b10001101011101100 t
b100000 B
b100000 q
b101000 3"
b101000 :"
b101000 ;"
b101000 6"
b101000 8"
b100100 ="
b100100 5"
b100100 >"
b10 _"
1!
1*
#180000
0!
0*
#190000
b1101 W
b1101 a
b1101 w
b1101 B"
b11010001011001100 p
b101100 7"
b101100 7
b101100 ~
b1000 Z"
b1000 I
b11001 G"
b11001 /
b11001 %"
b1001 F"
b1001 .
b1001 $"
b11001 1"
b11001 N
b11001 _
b1101 0"
b1101 M
b1101 `
b110100010110011 /"
b110100010110011 G
b110100010110011 d
b100100 ,"
b11010001011110000 L
b11010001011110000 r
b11010001011110000 t
b100100 B
b100100 q
b101000 #"
b101000 8
b101000 '"
0}
0J
b10001101011101100 z
b10001101011101100 C
b10111 {
b10111 E
b10111 \"
b1 x
b1 ;
b1 Y
b1 S"
b1 ["
b101100 3"
b101100 :"
b101100 ;"
b101100 6"
b101100 8"
b0 _"
b11010000001010000100000011 ?"
b11010000001010000100000011 1
b11010000001010000100000011 !"
b11010000001010000100000011 4"
b101000 ="
b101000 5"
b101000 >"
1!
1*
#200000
0!
0*
#210000
b11111111111111111010000100000011 I"
b11111111111111111010000100000011 U
b11111111111111111010000100000011 *"
b1010000100000011 T
b1010000100000011 H"
b10100 Q
b10100 ("
b0 S
b0 )"
b0 D"
b11010 R
b11010 C"
b11001 V
b11001 e
b11001 l
b110000 7"
b110000 7
b110000 ~
b1101 |
b1101 H
b1101 V"
b11010001011110000 z
b11010001011110000 C
b101100 #"
b101100 8
b101100 '"
b11010000001010000100000011 ""
b11010000001010000100000011 2
b11001 ."
b11001 F
b11001 c
b11001 u
b1001 -"
b1001 D
b1001 k
b101000 ,"
b11010001011110100 L
b11010001011110100 r
b11010001011110100 t
b101000 B
b101000 q
b1 W"
b1 :
b1 b"
b110000 3"
b110000 :"
b110000 ;"
b110000 6"
b110000 8"
b101100 ="
b101100 5"
b101100 >"
b1 _"
b1 ^"
1!
1*
#220000
0!
0*
#230000
b11001 n
b11001 &
b11001 s
b110 i
b110 K
b110 j
b10100 W
b10100 a
b10100 w
b10100 B"
b11111111111111101000010000001100 p
b11 h
b110100 7"
b110100 7
b110100 ~
b1101 Z"
b1101 I
b0 G"
b0 /
b0 %"
b11010 F"
b11010 .
b11010 $"
b0 1"
b0 N
b0 _
b10100 0"
b10100 M
b10100 `
b11111111111111111010000100000011 /"
b11111111111111111010000100000011 G
b11111111111111111010000100000011 d
b101100 ,"
b11111111111111101000010000111000 L
b11111111111111101000010000111000 r
b11111111111111101000010000111000 t
b101100 B
b101100 q
b110000 #"
b110000 8
b110000 '"
b11010001011110100 z
b11010001011110100 C
b11001 {
b11001 E
b11001 \"
b110100 3"
b110100 :"
b110100 ;"
b110100 6"
b110100 8"
b10 _"
b0xxxxxxxxxxxxxxxx ?"
b0xxxxxxxxxxxxxxxx 1
b0xxxxxxxxxxxxxxxx !"
b0xxxxxxxxxxxxxxxx 4"
b110000 ="
b110000 5"
b110000 >"
1!
1*
#240000
0!
0*
#250000
bx T
bx H"
bx Q
bx ("
b0 R
b0 C"
b0 V
b0 e
b0 l
b11010 n
b11010 &
b11010 s
b111000 7"
b111000 7
b111000 ~
b10100 |
b10100 H
b10100 V"
b11111111111111101000010000111000 z
b11111111111111101000010000111000 C
b11001 x
b11001 ;
b11001 Y
b11001 S"
b11001 ["
b110100 #"
b110100 8
b110100 '"
b0xxxxxxxxxxxxxxxx ""
b0xxxxxxxxxxxxxxxx 2
b0 ."
b0 F
b0 c
b0 u
b11010 -"
b11010 D
b11010 k
b110000 ,"
b11111111111111101000010000111100 L
b11111111111111101000010000111100 r
b11111111111111101000010000111100 t
b110000 B
b110000 q
b111000 3"
b111000 :"
b111000 ;"
b111000 6"
b111000 8"
b110100 ="
b110100 5"
b110100 >"
b0 _"
1!
1*
#260000
0!
0*
#270000
bx W
bx a
bx w
bx B"
b111100 7"
b111100 7
b111100 ~
b10100 Z"
b10100 I
b11001 W"
b11001 :
b11001 b"
b0 F"
b0 .
b0 $"
bx 0"
bx M
bx `
b110100 ,"
b11111111111111101000010001000000 L
b11111111111111101000010001000000 r
b11111111111111101000010001000000 t
b110100 B
b110100 q
b111000 #"
b111000 8
b111000 '"
b11111111111111101000010000111100 z
b11111111111111101000010000111100 C
b0 {
b0 E
b0 \"
b11010 x
b11010 ;
b11010 Y
b11010 S"
b11010 ["
b111100 3"
b111100 :"
b111100 ;"
b111100 6"
b111100 8"
b0 _"
b11001 ^"
bx ?"
bx 1
bx !"
bx 4"
b111000 ="
b111000 5"
b111000 >"
1!
1*
#280000
0!
0*
#290000
1o
1X
bx 9
bx J"
bx S
bx )"
bx D"
bx R
bx C"
b0 n
b0 &
b0 s
b1000000 7"
b1000000 7
b1000000 ~
bx |
bx H
bx V"
b11111111111111101000010001000000 z
b11111111111111101000010001000000 C
b111100 #"
b111100 8
b111100 '"
bx ""
bx 2
b0 -"
b0 D
b0 k
b111000 ,"
b11111111111111101000010001000100 L
b11111111111111101000010001000100 r
b11111111111111101000010001000100 t
b111000 B
b111000 q
b11010 W"
b11010 :
b11010 b"
b1000000 3"
b1000000 :"
b1000000 ;"
b1000000 6"
b1000000 8"
b111100 ="
b111100 5"
b111100 >"
b1 _"
b11010 ^"
1!
1*
#300000
0!
0*
#310000
b1000100 7"
b1000100 7
b1000100 ~
bx Z"
bx I
bx G"
bx /
bx %"
bx F"
bx .
bx $"
bx 1"
bx N
bx _
b111100 ,"
b11111111111111101000010001001000 L
b11111111111111101000010001001000 r
b11111111111111101000010001001000 t
b111100 B
b111100 q
b1000000 #"
b1000000 8
b1000000 '"
1}
1J
b11111111111111101000010001000100 z
b11111111111111101000010001000100 C
b0 x
b0 ;
b0 Y
b0 S"
b0 ["
b1000100 3"
b1000100 :"
b1000100 ;"
b1000100 6"
b1000100 8"
b0 _"
b1000000 ="
b1000000 5"
b1000000 >"
1!
1*
#320000
0!
0*
#330000
0o
0X
bx V
bx e
bx l
bx n
bx &
bx s
b1001000 7"
b1001000 7
b1001000 ~
b11111111111111101000010001001000 z
b11111111111111101000010001001000 C
b1000100 #"
b1000100 8
b1000100 '"
bx ."
bx F
bx c
bx u
bx -"
bx D
bx k
b1000000 ,"
b11111111111111101000010001001100 L
b11111111111111101000010001001100 r
b11111111111111101000010001001100 t
b1000000 B
b1000000 q
b0 W"
b0 :
b0 b"
b1001000 3"
b1001000 :"
b1001000 ;"
b1001000 6"
b1001000 8"
b1000100 ="
b1000100 5"
b1000100 >"
b1 _"
b0 ^"
1!
1*
#340000
0!
0*
#350000
b1001100 7"
b1001100 7
b1001100 ~
b1000100 ,"
b11111111111111101000010001010000 L
b11111111111111101000010001010000 r
b11111111111111101000010001010000 t
b1000100 B
b1000100 q
b1001000 #"
b1001000 8
b1001000 '"
0}
0J
b11111111111111101000010001001100 z
b11111111111111101000010001001100 C
bx {
bx E
bx \"
bx x
bx ;
bx Y
bx S"
bx ["
b1001100 3"
b1001100 :"
b1001100 ;"
b1001100 6"
b1001100 8"
b0 _"
b1001000 ="
b1001000 5"
b1001000 >"
1!
1*
#360000
0!
0*
#370000
b1010000 7"
b1010000 7
b1010000 ~
b11111111111111101000010001010000 z
b11111111111111101000010001010000 C
b1001100 #"
b1001100 8
b1001100 '"
b1001000 ,"
b11111111111111101000010001010100 L
b11111111111111101000010001010100 r
b11111111111111101000010001010100 t
b1001000 B
b1001000 q
bx W"
bx :
bx b"
b1010000 3"
b1010000 :"
b1010000 ;"
b1010000 6"
b1010000 8"
b1001100 ="
b1001100 5"
b1001100 >"
b1 _"
bx ^"
1!
1*
#380000
0!
0*
#390000
b1010100 7"
b1010100 7
b1010100 ~
b1001100 ,"
b11111111111111101000010001011000 L
b11111111111111101000010001011000 r
b11111111111111101000010001011000 t
b1001100 B
b1001100 q
b1010000 #"
b1010000 8
b1010000 '"
b11111111111111101000010001010100 z
b11111111111111101000010001010100 C
b1010100 3"
b1010100 :"
b1010100 ;"
b1010100 6"
b1010100 8"
b10 _"
b1010000 ="
b1010000 5"
b1010000 >"
1!
1*
#400000
0!
0*
#410000
b1011000 7"
b1011000 7
b1011000 ~
b11111111111111101000010001011000 z
b11111111111111101000010001011000 C
b1010100 #"
b1010100 8
b1010100 '"
b1010000 ,"
b11111111111111101000010001011100 L
b11111111111111101000010001011100 r
b11111111111111101000010001011100 t
b1010000 B
b1010000 q
b1011000 3"
b1011000 :"
b1011000 ;"
b1011000 6"
b1011000 8"
b1010100 ="
b1010100 5"
b1010100 >"
b11 _"
1!
1*
#420000
0!
0*
#430000
b1011100 7"
b1011100 7
b1011100 ~
b1010100 ,"
b11111111111111101000010001100000 L
b11111111111111101000010001100000 r
b11111111111111101000010001100000 t
b1010100 B
b1010100 q
b1011000 #"
b1011000 8
b1011000 '"
b11111111111111101000010001011100 z
b11111111111111101000010001011100 C
b1011100 3"
b1011100 :"
b1011100 ;"
b1011100 6"
b1011100 8"
b100 _"
b1011000 ="
b1011000 5"
b1011000 >"
1!
1*
#440000
0!
0*
#450000
b1100000 7"
b1100000 7
b1100000 ~
b11111111111111101000010001100000 z
b11111111111111101000010001100000 C
b1011100 #"
b1011100 8
b1011100 '"
b1011000 ,"
b11111111111111101000010001100100 L
b11111111111111101000010001100100 r
b11111111111111101000010001100100 t
b1011000 B
b1011000 q
b1100000 3"
b1100000 :"
b1100000 ;"
b1100000 6"
b1100000 8"
b1011100 ="
b1011100 5"
b1011100 >"
bx0000 ^"
b101 _"
1!
1*
#460000
0!
0*
#470000
b1100100 7"
b1100100 7
b1100100 ~
b1011100 ,"
b11111111111111101000010001101000 L
b11111111111111101000010001101000 r
b11111111111111101000010001101000 t
b1011100 B
b1011100 q
b1100000 #"
b1100000 8
b1100000 '"
b11111111111111101000010001100100 z
b11111111111111101000010001100100 C
b1100100 3"
b1100100 :"
b1100100 ;"
b1100100 6"
b1100100 8"
b110 _"
bx ^"
b1100000 ="
b1100000 5"
b1100000 >"
1!
1*
#480000
0!
0*
#490000
b1101000 7"
b1101000 7
b1101000 ~
b11111111111111101000010001101000 z
b11111111111111101000010001101000 C
b1100100 #"
b1100100 8
b1100100 '"
b1100000 ,"
b11111111111111101000010001101100 L
b11111111111111101000010001101100 r
b11111111111111101000010001101100 t
b1100000 B
b1100000 q
b1101000 3"
b1101000 :"
b1101000 ;"
b1101000 6"
b1101000 8"
b1100100 ="
b1100100 5"
b1100100 >"
b111 _"
1!
1*
#500000
0!
0*
#510000
b1101100 7"
b1101100 7
b1101100 ~
b1100100 ,"
b11111111111111101000010001110000 L
b11111111111111101000010001110000 r
b11111111111111101000010001110000 t
b1100100 B
b1100100 q
b1101000 #"
b1101000 8
b1101000 '"
b11111111111111101000010001101100 z
b11111111111111101000010001101100 C
b1101100 3"
b1101100 :"
b1101100 ;"
b1101100 6"
b1101100 8"
b0 _"
b1101000 ="
b1101000 5"
b1101000 >"
1!
1*
#520000
0!
0*
#530000
b1110000 7"
b1110000 7
b1110000 ~
b11111111111111101000010001110000 z
b11111111111111101000010001110000 C
b1101100 #"
b1101100 8
b1101100 '"
b1101000 ,"
b11111111111111101000010001110100 L
b11111111111111101000010001110100 r
b11111111111111101000010001110100 t
b1101000 B
b1101000 q
b1110000 3"
b1110000 :"
b1110000 ;"
b1110000 6"
b1110000 8"
b1101100 ="
b1101100 5"
b1101100 >"
b1 _"
1!
1*
#540000
0!
0*
